[
  {
    "title": "Product 1",
    "price": 100
  },
  {
    "title": "Product 2",
    "price": 200
  },
  {
    "title": "Product 3",
    "price": 300
  },
  {
    "title": "Product 4",
    "price": 400
  },
  {
    "title": "Product 5",
    "price": 500
  }
]